<svg width="24" height="24" viewBox="0 0 24 24" fill="none" xmlns="http://www.w3.org/2000/svg">
<path fill-rule="evenodd" clip-rule="evenodd" d="M1.5 2C0.947715 2 0.5 2.44772 0.5 3C0.5 3.55228 0.947715 4 1.5 4H2.46922L5.52986 16.2425C5.64115 16.6877 6.04113 17 6.5 17C5.11929 17 4 18.1193 4 19.5C4 20.8807 5.11929 22 6.5 22C7.88071 22 9 20.8807 9 19.5C9 18.1193 7.88071 17 6.5 17H19.5C18.1193 17 17 18.1193 17 19.5C17 20.8807 18.1193 22 19.5 22C20.8807 22 22 20.8807 22 19.5C22 18.1193 20.8807 17 19.5 17C19.9589 17 20.3589 16.6877 20.4701 16.2425L22.9701 6.24254C23.0448 5.94379 22.9777 5.6273 22.7882 5.38459C22.5987 5.14187 22.3079 5 22 5H4.78078L4.22014 2.75746C4.10885 2.3123 3.70887 2 3.25 2H1.5ZM6 19.5C6 19.2239 6.22386 19 6.5 19C6.77614 19 7 19.2239 7 19.5C7 19.7761 6.77614 20 6.5 20C6.22386 20 6 19.7761 6 19.5ZM19 19.5C19 19.2239 19.2239 19 19.5 19C19.7761 19 20 19.2239 20 19.5C20 19.7761 19.7761 20 19.5 20C19.2239 20 19 19.7761 19 19.5ZM11 10C10.4477 10 10 10.4477 10 11C10 11.5523 10.4477 12 11 12H15C15.5523 12 16 11.5523 16 11C16 10.4477 15.5523 10 15 10H11Z" fill="black" fill-opacity="0.65"/>
</svg>
